%YAML 1.1
%TAG !u! tag:unity3d.com,2011:
--- !u!1045 &1
EditorBuildSettings:
  m_ObjectHideFlags: 0
  serializedVersion: 2
  m_Scenes:
  - enabled: 1
    path: Assets/Scenes/acilis.unity
    guid: 52f34b5d18fde8145b94dd6ce14e4349
  - enabled: 1
    path: Assets/Scenes/mainmenu.unity
    guid: fcdec3f1a511add4fb951943d7826aab
  - enabled: 1
    path: Assets/Scenes/SampleScene.unity
    guid: 99c9720ab356a0642a771bea13969a05
  - enabled: 1
    path: Assets/Scenes/failed.unity
    guid: c3bd89fc7ec2d9b418cebacec3de5125
  - enabled: 1
    path: Assets/Scenes/levelpassed.unity
    guid: 6578ae9b65ee51c4ca9600fa09f8bef2
  - enabled: 1
    path: Assets/Scenes/settings.unity
    guid: ccd40a38ab469a240a734a1daf65b27e
  - enabled: 1
    path: Assets/Scenes/generics.unity
    guid: 5ac2dd13ae4eae74ebd7ec116aaf2dae
  - enabled: 1
    path: Assets/Scenes/kontrol.unity
    guid: f796442ec84d6a648a0b2e756b5c238e
  - enabled: 1
    path: Assets/Scenes/zamanakarsi.unity
    guid: fd6ced55e9b8dd94981b717fde09c53c
  - enabled: 1
    path: Assets/Scenes/zaman_won.unity
    guid: bb295354e6914014fbbe63d91fcd56c1
  m_configObjects: {}
